{
  "type": "service_account",
  "project_id": "mye-chatbot-restoreconv",
  "private_key_id": "6d9793e4945a9cf91c61abd469655188c484e728",
  "private_key": "-----BEGIN PRIVATE KEY-----\nMIIEvQIBADANBgkqhkiG9w0BAQEFAASCBKcwggSjAgEAAoIBAQDXTl4x/MyXRfJd\nAqXz/6mPvWZZ+SReG5Uyw3jdLAkiYM42tiqxKpRHRvJqinen/m1k3ZtwUJ7MvN7c\nXmGEUQp0Egqy9GDrc/yScqBVBixzXdIdbZbjDt1c3zCxE8BAxim4gQE+WYZmXAJz\nwS30z4gFrhr8YT2zJuCJeE+KeNT/AVX3QfB9tE7B97eqAtqGJ/z15jDGik5X8Xzf\nbQFBvo3/dlI/J+MNbnc0Q56+0Ss/MOhw43QNf8Fo4nL1eJYsqgP8qR/PlbcH1xg4\nmtrnv+/+Ae3pLaAEI5k3YZv73T/dGSZBTnSO4ekme+7CEuahpjlk+N11HBqBoBYp\ngWMrRCyPAgMBAAECggEAGnlp7raZh55Ts2kgc9TDiketPrH6bVHx8hiEE5oXE3GY\n2bRjon5MVklchIo7NV59IBJ5ywE2zZEJzEoUrprycJxJUYDoK/uKmo1atqm4LIVk\nUTcI/yl0Qbe1+oglszFKrwO53etPMeXtbUNbPceI/73NVqw0VIOax3ySN0ItWp+b\nIbdXlZgbFO7dmwVwclJ6b1Mk8BRQKiH3JwA/07bF9EtzYe91geILKS58ZgZlxNVH\nz0/72qhGTou0QqYGDJU8hhoZ5gEnMKVJj6BAj2zre02pJoz2iaGiwVKIJ5n0AbRV\n02ISxtZn/WYrXylsWjiOywWvJzjsqUBp1g71H5+ScQKBgQD1dWowtml8wzmd1uJK\nqup/Qlz7IGnNOzxvA0CwY13WPC2QWSMk7k9hn2RTYTcEMigqWgDPNPj6RqXNkw06\niUI1KX1fZ3WJLLfgyRYxoQEbhSk1D72Y82cPKBLJmvbp9upuFwGYtYHJsR5jczJc\nh3gXJXzsa4tomXYEOGVnLDuwUQKBgQDgjXRm6Q4nfyIm6qZWNKMLT+Th/1q+H6xj\nbWsL8yaT3PiuaaMbQOuuyjzAnq9M7TOLgyPr15XSLcCZbbg6wV6HQeSr3ZXK+DCq\nlJTHBWpxKL1jLllbyW2p6IKq2vKkYFGFG4wefBV1WT71i27PhqdkASwq02YZIWQ3\n02GdBiy23wKBgC5I87s3ynByR70Rth4qWImis/HOzOScVOsCDAK22gz50AW2KUBf\nh6x65+opHLy30Icb7ack8AYRqFY5cnclRszLhA6nbaxuOEY05PB60cCkvX5592CO\nFVLwVYqapBC+NLqJsA1hvJWRxo8uO8Li8Kw8r2/NX75bobtt/wETgDXhAoGBALRV\nBVEMAsD3WV71fKWoWfPgsohIQQCEgTXMDnanS6jdgZzX2xQs+9kAMu/hwBhAOe/l\nXjithnUnJxBQS+5rklV/NnxLVFuPG84xypVWJRhBRm7bLwoGZppXznAVq10UuQLz\nj4B/19/Iz0X0NwZUNiOayXSPFuRBq7ElgbPP3KLzAoGAZ1dQViZK6NFctOtssaBF\nHmc0q0LYLHBIKyY06PcmpbwUcrSy/3oi+VciC2H85s25zf+4a0v/yDBgGmB3x682\nCdP9uAuK0icypUfPr4uqMmAM5+YTH5lu7WVss+KdIRIWYLtc5sLs04vgl44ALGSB\n1YwOi4q8IH3N0PGau1i5/Fs=\n-----END PRIVATE KEY-----\n",
  "client_email": "mye-accountservice@mye-chatbot-restoreconv.iam.gserviceaccount.com",
  "client_id": "114918125403619503366",
  "auth_uri": "https://accounts.google.com/o/oauth2/auth",
  "token_uri": "https://accounts.google.com/o/oauth2/token",
  "auth_provider_x509_cert_url": "https://www.googleapis.com/oauth2/v1/certs",
  "client_x509_cert_url": "https://www.googleapis.com/robot/v1/metadata/x509/mye-accountservice%40mye-chatbot-restoreconv.iam.gserviceaccount.com"
}